Année,Nombre de commit,Auteur
2007,243,Szczepan Faber
2008,520,Szczepan Faber
2009,497,Szczepan Faber
2010,205,Szczepan Faber
2011,52,Szczepan Faber
2012,99,Szczepan Faber
2013,6,Szczepan Faber
2014,417,Szczepan Faber
2015,92,Szczepan Faber
2016,370,Szczepan Faber
2017,245,Szczepan Faber
2018,217,Szczepan Faber
2019,51,Szczepan Faber
2020,1,Szczepan Faber
2007,,Brice Dutheil
2008,,Brice Dutheil
2009,,Brice Dutheil
2010,11,Brice Dutheil
2011,24,Brice Dutheil
2012,107,Brice Dutheil
2013,56,Brice Dutheil
2014,40,Brice Dutheil
2015,151,Brice Dutheil
2016,150,Brice Dutheil
2017,32,Brice Dutheil
2018,,Brice Dutheil
2019,6,Brice Dutheil
2020,2,Brice Dutheil
2007,,Continuous Delivery Drone
2008,,Continuous Delivery Drone
2009,,Continuous Delivery Drone
2010,,Continuous Delivery Drone
2011,,Continuous Delivery Drone
2012,,Continuous Delivery Drone
2013,,Continuous Delivery Drone
2014,38,Continuous Delivery Drone
2015,58,Continuous Delivery Drone
2016,281,Continuous Delivery Drone
2017,73,Continuous Delivery Drone
2018,,Continuous Delivery Drone
2019,,Continuous Delivery Drone
2020,,Continuous Delivery Drone
2007,,Rafael Winterhalter
2008,,Rafael Winterhalter
2009,,Rafael Winterhalter
2010,,Rafael Winterhalter
2011,,Rafael Winterhalter
2012,,Rafael Winterhalter
2013,,Rafael Winterhalter
2014,,Rafael Winterhalter
2015,19,Rafael Winterhalter
2016,114,Rafael Winterhalter
2017,39,Rafael Winterhalter
2018,13,Rafael Winterhalter
2019,40,Rafael Winterhalter
2020,,Rafael Winterhalter
2007,,shipkit-org
2008,,shipkit-org
2009,,shipkit-org
2010,,shipkit-org
2011,,shipkit-org
2012,,shipkit-org
2013,,shipkit-org
2014,,shipkit-org
2015,,shipkit-org
2016,,shipkit-org
2017,23,shipkit-org
2018,69,shipkit-org
2019,76,shipkit-org
2020,8,shipkit-org
2007,,Tim van der Lippe
2008,,Tim van der Lippe
2009,,Tim van der Lippe
2010,,Tim van der Lippe
2011,,Tim van der Lippe
2012,,Tim van der Lippe
2013,,Tim van der Lippe
2014,,Tim van der Lippe
2015,5,Tim van der Lippe
2016,50,Tim van der Lippe
2017,44,Tim van der Lippe
2018,15,Tim van der Lippe
2019,87,Tim van der Lippe
2020,11,Tim van der Lippe
2007,,Mockito Release Tools
2008,,Mockito Release Tools
2009,,Mockito Release Tools
2010,,Mockito Release Tools
2011,,Mockito Release Tools
2012,,Mockito Release Tools
2013,,Mockito Release Tools
2014,,Mockito Release Tools
2015,,Mockito Release Tools
2016,,Mockito Release Tools
2017,55,Mockito Release Tools
2018,,Mockito Release Tools
2019,,Mockito Release Tools
2020,,Mockito Release Tools
2007,,Pascal Schumacher
2008,,Pascal Schumacher
2009,,Pascal Schumacher
2010,,Pascal Schumacher
2011,,Pascal Schumacher
2012,,Pascal Schumacher
2013,,Pascal Schumacher
2014,,Pascal Schumacher
2015,,Pascal Schumacher
2016,36,Pascal Schumacher
2017,1,Pascal Schumacher
2018,3,Pascal Schumacher
2019,,Pascal Schumacher
2020,,Pascal Schumacher
2007,,Christian Schwarz
2008,,Christian Schwarz
2009,,Christian Schwarz
2010,,Christian Schwarz
2011,,Christian Schwarz
2012,,Christian Schwarz
2013,,Christian Schwarz
2014,,Christian Schwarz
2015,2,Christian Schwarz
2016,28,Christian Schwarz
2017,7,Christian Schwarz
2018,8,Christian Schwarz
2019,,Christian Schwarz
2020,,Christian Schwarz
2007,,Brice
2008,,Brice
2009,,Brice
2010,11 4,Brice
2011,31 24,Brice
2012,107,Brice
2013,56,Brice
2014,40,Brice
2015,151,Brice
2016,150,Brice
2017,32,Brice
2018,,Brice
2019,6,Brice
2020,2,Brice
